    <!-- ======= Header ======= -->
    <header id="header">
        <div class="d-flex flex-column">
            <div class="profile">
                <div class="social-links mt-3 text-center">
                    <a href="#" class="twitter"><i class="bx bxl-twitter"></i></a>
                    <a href="#" class="facebook"><i class="bx bxl-facebook"></i></a>
                    <a href="#" class="instagram"><i class="bx bxl-instagram"></i></a>
                    <a href="#" class="google-plus"><i class="bx bxl-skype"></i></a>
                    <a href="#" class="linkedin"><i class="bx bxl-linkedin"></i></a>
                </div>
            </div>
        </div>
    </header>



/*--------------------------------------------------------------
# Header
--------------------------------------------------------------*/

#header {
    position: fixed;
    top: 0;
    left: 0;
    bottom: 0;
    width: 300px;
    transition: all ease-in-out 0.5s;
    z-index: 9997;
    transition: all 0.5s;
    padding: 0 15px;
    background: #040b14;
    overflow-y: auto;
}

#header .profile img {
    margin: 15px auto;
    display: block;
    width: 120px;
    border: 8px solid #2c2f3f;
}

#header .profile h1 {
    font-size: 24px;
    margin: 0;
    padding: 0;
    font-weight: 600;
    -moz-text-align-last: center;
    text-align-last: center;
    font-family: "Poppins", sans-serif;
}

#header .profile h1 a,
#header .profile h1 a:hover {
    color: #fff;
    text-decoration: none;
}

#header .profile .social-links a {
    font-size: 18px;
    display: inline-block;
    background: #212431;
    color: #fff;
    line-height: 1;
    padding: 8px 0;
    margin-right: 4px;
    border-radius: 50%;
    text-align: center;
    width: 36px;
    height: 36px;
    transition: 0.3s;
}

#header .profile .social-links a:hover {
    background: #149ddd;
    color: #fff;
    text-decoration: none;
}

#main {
    margin-left: 300px;
}

@media (max-width: 1199px) {
    #header {
        left: -300px;
    }
    #main {
        margin-left: 0;
    }
}

